Division,WeightClassKg,Place,Name,Team,BodyweightKg,Best3SquatKg,Best3BenchKg,Best3DeadliftKg,TotalKg,Equipment,Event,Sex,BirthDate
Boys,51.71,1,Manuel Padilla,Rice,49.44,113.4,74.84,129.27,317.51,Single-ply,SBD,M,
Boys,51.71,2,Luis Aguirre,West,48.99,113.4,81.65,117.93,312.98,Single-ply,SBD,M,
Boys,51.71,3,Nguyen Tran,Hillsboro,50.89,111.13,70.31,124.74,306.17,Single-ply,SBD,M,
Boys,51.71,4,Logan Maddox,Dawson,42.37,90.72,47.63,83.91,222.26,Single-ply,SBD,M,
Boys,51.71,5,Christian Campos,Hubbard,44.09,61.23,52.16,97.52,210.92,Single-ply,SBD,M,
Boys,51.71,DQ,Josh Roache,Corsicana Mildred,50.8,,,,,Single-ply,SBD,M,
Boys,51.71,DQ,Jot Grant,Rice,50.8,92.99,,,,Single-ply,SBD,M,
Boys,55.79,1,Krissangel Lopez,Rice,55.34,147.42,79.38,161.03,387.82,Single-ply,SBD,M,
Boys,55.79,2,James Hicks,Waxahachie Life,54.7,133.81,68.04,142.88,344.73,Single-ply,SBD,M,
Boys,55.79,3,Trey LaPrarie,Elkhart,55.43,120.2,56.7,122.47,299.37,Single-ply,SBD,M,
Boys,55.79,4,Damien Wooldridge,Italy,55.61,111.13,61.23,124.74,297.1,Single-ply,SBD,M,
Boys,55.79,5,Dalen Coker,Wortham,55.34,95.25,61.23,108.86,265.35,Single-ply,SBD,M,
Boys,55.79,6,Miguel Lara,Red Oak,55.07,79.38,61.23,106.59,247.21,Single-ply,SBD,M,
Boys,59.87,1,Caidn Kocian,West,58.69,192.78,102.06,190.51,485.34,Single-ply,SBD,M,
Boys,59.87,2,Nicholas Thompson,West,59.6,158.76,108.86,170.1,437.72,Single-ply,SBD,M,
Boys,59.87,3,Payton Fields,Red Oak,59.24,140.61,95.25,145.15,381.02,Single-ply,SBD,M,
Boys,59.87,4,Andrew Santoyo,Rice,58.51,142.88,74.84,147.42,365.14,Single-ply,SBD,M,
Boys,59.87,5,Ben Zeleta,Scurry-Rosser,59.42,117.93,74.84,142.88,335.66,Single-ply,SBD,M,
Boys,59.87,6,Antonio Perez,Scurry-Rosser,59.87,111.13,72.57,131.54,315.25,Single-ply,SBD,M,
Boys,59.87,7,Adrian Gomez,Palmer,59.78,111.13,58.97,133.81,303.91,Single-ply,SBD,M,
Boys,59.87,DQ,Micah McCall,Dawson,59.6,,,,,Single-ply,SBD,M,
Boys,67.13,1,Leonardo Lopez,Hillsboro,64.77,188.24,113.4,183.7,485.34,Single-ply,SBD,M,
Boys,67.13,2,Wesley Romero,Palmer,65.68,158.76,86.18,183.7,428.64,Single-ply,SBD,M,
Boys,67.13,3,Andrew Zuniga,Red Oak,65.23,149.69,106.59,165.56,421.84,Single-ply,SBD,M,
Boys,67.13,4,Curtis Gatewood,Corsicana,64.77,142.88,113.4,161.03,417.3,Single-ply,SBD,M,
Boys,67.13,5,Cannon Cook,West,65.5,156.49,81.65,163.29,401.43,Single-ply,SBD,M,
Boys,67.13,6,Zeth Moore,Hubbard,60.6,129.27,83.91,181.44,394.63,Single-ply,SBD,M,
Boys,67.13,7,Braiden York,Elkhart,61.69,154.22,90.72,147.42,392.36,Single-ply,SBD,M,
Boys,67.13,8,Romeo Silva,Hillsboro,61.05,138.35,81.65,142.88,362.87,Single-ply,SBD,M,
Boys,67.13,9,Ja'Shawne Hillsman,Corsicana,64.95,138.35,77.11,147.42,362.87,Single-ply,SBD,M,
Boys,67.13,10,Jase Elkins,Dawson,66.5,142.88,63.5,145.15,351.53,Single-ply,SBD,M,
Boys,67.13,11,Adrian Avila,Mexia,66.13,151.95,70.31,124.74,347,Single-ply,SBD,M,
Boys,67.13,12,Ryker Gorrell,Palmer,65.23,131.54,61.23,142.88,335.66,Single-ply,SBD,M,
Boys,67.13,13,Hayden Pruitt,Scurry-Rosser,65.95,117.93,81.65,124.74,324.32,Single-ply,SBD,M,
Boys,67.13,14,Abraham Saldana,Mexia,60.15,102.06,72.57,124.74,299.37,Single-ply,SBD,M,
Boys,67.13,15,Simon Zeleta,Scurry-Rosser,62.14,115.67,61.23,120.2,297.1,Single-ply,SBD,M,
Boys,67.13,16,Brody Hines,Corsicana Mildred,60.87,102.06,58.97,120.2,281.23,Single-ply,SBD,M,
Boys,67.13,17,Colson Mayfield,Maypearl,63.96,90.72,68.04,113.4,272.16,Single-ply,SBD,M,
Boys,74.84,1,Ricardo Martinez #2,Hillsboro,73.94,208.65,127.01,217.72,553.38,Single-ply,SBD,M,
Boys,74.84,2,Evan Stewart,West,73.12,197.31,136.08,183.7,517.1,Single-ply,SBD,M,
Boys,74.84,3,DeMarcus Jackson,Dawson,68.31,195.04,99.79,208.65,503.49,Single-ply,SBD,M,
Boys,74.84,4,Max Sellers,Ennis,68.4,183.7,113.4,181.44,478.54,Single-ply,SBD,M,
Boys,74.84,5,Tyler McClendon,Corsicana,74.84,190.51,104.33,181.44,476.27,Single-ply,SBD,M,
Boys,74.84,6,Pablo Rodarte,Elkhart,74.84,185.97,99.79,188.24,474,Single-ply,SBD,M,
Boys,74.84,7,Julian Jefferson,Corsicana Mildred,68.58,158.76,108.86,174.63,442.25,Single-ply,SBD,M,
Boys,74.84,8,Kadin Juarez,Ennis,69.94,151.95,115.67,174.63,442.25,Single-ply,SBD,M,
Boys,74.84,9,Jack Sutton,Ennis,69.22,165.56,113.4,154.22,433.18,Single-ply,SBD,M,
Boys,74.84,10,Tyler Blakemore,West,71.67,161.03,86.18,181.44,428.64,Single-ply,SBD,M,
Boys,74.84,11,Claude Kelly,Waxahachie Life,74.84,156.49,97.52,165.56,419.57,Single-ply,SBD,M,
Boys,74.84,12,Ryan Holliday,Maypearl,72.12,158.76,92.99,165.56,417.3,Single-ply,SBD,M,
Boys,74.84,13,Elijah Garcia,Palmer,70.4,158.76,86.18,163.29,408.23,Single-ply,SBD,M,
Boys,74.84,14,Gabe Irvine,Corsicana Mildred,70.4,147.42,88.45,154.22,390.09,Single-ply,SBD,M,
Boys,74.84,15,Juan Galindo,Rice,70.31,147.42,83.91,147.42,378.75,Single-ply,SBD,M,
Boys,74.84,16,Jack Gilligan,Elkhart,69.67,145.15,74.84,136.08,356.07,Single-ply,SBD,M,
Boys,74.84,17,Nate Green,West,70.03,133.81,74.84,140.61,349.27,Single-ply,SBD,M,
Boys,74.84,18,Landon Ledbetter,Palmer,70.03,136.08,74.84,124.74,335.66,Single-ply,SBD,M,
Boys,74.84,19,Cash Crews,Scurry-Rosser,67.68,124.74,68.04,138.35,331.12,Single-ply,SBD,M,
Boys,74.84,20,Wyatt Robertson,Wortham,69.67,113.4,74.84,138.35,326.59,Single-ply,SBD,M,
Boys,74.84,21,Lane Williams,Elkhart,68.31,106.59,86.18,120.2,312.98,Single-ply,SBD,M,
Boys,74.84,22,Ian Null,Hubbard,73.66,97.52,74.84,136.08,308.44,Single-ply,SBD,M,
Boys,74.84,DQ,Coy Klish,West,74.84,,,,,Single-ply,SBD,M,
Boys,74.84,DQ,Patrick Williams #6,Red Oak,74.84,,,,,Single-ply,SBD,M,
Boys,82.1,1,Brayden Gardner,Ennis,81.19,249.48,190.51,233.6,673.58,Single-ply,SBD,M,
Boys,82.1,2,Jose Villanueva,Kemp,78.56,249.48,149.69,195.04,594.21,Single-ply,SBD,M,
Boys,82.1,3,Keanu Wolfe,Elkhart,81.56,224.53,124.74,199.58,548.85,Single-ply,SBD,M,
Boys,82.1,4,Tyler Jaster,West,76.93,206.38,113.4,206.38,526.17,Single-ply,SBD,M,
Boys,82.1,5,Max Lara,Elkhart,77.38,215.46,117.93,192.78,526.17,Single-ply,SBD,M,
Boys,82.1,6,Jorge Soria,Hillsboro,78.02,195.04,131.54,199.58,526.17,Single-ply,SBD,M,
Boys,82.1,7,Hunter Boatright,Dawson,80.74,210.92,115.67,192.78,519.36,Single-ply,SBD,M,
Boys,82.1,8,Austin Pittman,Elkhart,77.11,188.24,115.67,183.7,487.61,Single-ply,SBD,M,
Boys,82.1,9,Kevin Cano,Corsicana,77.56,188.24,104.33,190.51,483.08,Single-ply,SBD,M,
Boys,82.1,10,Cutter Burrow,Palmer,80.29,183.7,106.59,190.51,480.81,Single-ply,SBD,M,
Boys,82.1,11,Jesse Saldana,Wortham,80.87,181.44,113.4,183.7,478.54,Single-ply,SBD,M,
Boys,82.1,12,Christian Mack,Waxahachie Life,77.38,172.37,111.13,183.7,467.2,Single-ply,SBD,M,
Boys,82.1,13,Renfro Steele,Maypearl,80.47,163.29,102.06,179.17,444.52,Single-ply,SBD,M,
Boys,82.1,14,Jesus Luna,Italy,75.75,161.03,99.79,172.37,433.18,Single-ply,SBD,M,
Boys,82.1,15,Logan Rogers,Corsicana Mildred,78.02,181.44,92.99,158.76,433.18,Single-ply,SBD,M,
Boys,82.1,16,Collin Haley,Kemp,80.2,145.15,86.18,154.22,385.55,Single-ply,SBD,M,
Boys,82.1,17,Jose Aguilera,Mexia,78.83,145.15,74.84,147.42,367.41,Single-ply,SBD,M,
Boys,82.1,18,Chance Bryant,Italy,81.65,133.81,86.18,142.88,362.87,Single-ply,SBD,M,
Boys,82.1,19,Shayne Adams,West,81.1,111.13,74.84,129.27,315.25,Single-ply,SBD,M,
Boys,82.1,DQ,Marshall Eberle,Mexia,82.1,,,,,Single-ply,SBD,M,
Boys,82.1,DQ,Cameron DeVones,Red Oak,80.1,,,,,Single-ply,SBD,M,
Boys,89.81,1,Sam Meeker,Ennis,89.27,263.08,176.9,219.99,659.98,Single-ply,SBD,M,
Boys,89.81,2,Jesus Portillo,Kemp,85.73,272.16,170.1,208.65,650.91,Single-ply,SBD,M,
Boys,89.81,3,Juan Paredes,Rice,85.73,215.46,124.74,192.78,532.97,Single-ply,SBD,M,
Boys,89.81,4,Brian Ochoa,Scurry-Rosser,88.18,172.37,131.54,185.97,489.88,Single-ply,SBD,M,
Boys,89.81,5,Josh Heath,West,86.64,181.44,108.86,185.97,476.27,Single-ply,SBD,M,
Boys,89.81,6,Luis Garcia #16,Hillsboro,87.72,165.56,124.74,183.7,474,Single-ply,SBD,M,
Boys,89.81,7,Sergio Ramirez,Corsicana,88.81,170.1,108.86,181.44,460.4,Single-ply,SBD,M,
Boys,89.81,8,James Rissmiller,Wortham,88.81,172.37,111.13,174.63,458.13,Single-ply,SBD,M,
Boys,89.81,9,Gage Kuehn,Mexia,86.64,174.63,117.93,161.03,453.59,Single-ply,SBD,M,
Boys,89.81,10,Nate Foshee,Palmer,86.91,167.83,92.99,161.03,421.84,Single-ply,SBD,M,
Boys,89.81,11,Brett Holloman,West,83.28,147.42,99.79,138.35,385.55,Single-ply,SBD,M,
Boys,89.81,12,Isaiah Valles,Palmer,86.45,161.03,90.72,129.27,381.02,Single-ply,SBD,M,
Boys,89.81,13,Armando Mendoza,Kemp,87.63,142.88,81.65,142.88,367.41,Single-ply,SBD,M,
Boys,89.81,14,Cash Lamb,Hubbard,88.27,117.93,68.04,140.61,326.59,Single-ply,SBD,M,
Boys,89.81,15,Aiden Molina,Wortham,86.18,120.2,70.31,115.67,306.17,Single-ply,SBD,M,
Boys,89.81,DQ,Julian Duran,Red Oak,84.37,,,,,Single-ply,SBD,M,
Boys,89.81,DQ,Aaron Quezada,Kemp,84.55,254.01,147.42,,,Single-ply,SBD,M,
Boys,89.81,DQ,Bryten Fields,Ennis,85.91,,,,,Single-ply,SBD,M,
Boys,99.79,1,Lucas Hagler,Ennis,97.07,240.4,165.56,229.06,635.03,Single-ply,SBD,M,
Boys,99.79,2,Kelvin Eagans,Hillsboro,93.44,204.12,117.93,240.4,562.45,Single-ply,SBD,M,
Boys,99.79,3,Dylan Peek,Maypearl,93.35,192.78,138.35,208.65,539.77,Single-ply,SBD,M,
Boys,99.79,4,Patlan Mendez,Ennis,98.61,217.72,131.54,190.51,539.77,Single-ply,SBD,M,
Boys,99.79,5,Benjamin Brooks,Corsicana,95.07,199.58,129.27,204.12,532.97,Single-ply,SBD,M,
Boys,99.79,6,Ld Smith,Elkhart,97.43,195.04,104.33,195.04,494.42,Single-ply,SBD,M,
Boys,99.79,7,Gabriel Martinez,Italy,89.9,165.56,124.74,197.31,487.61,Single-ply,SBD,M,
Boys,99.79,8,Colby Ingram,Scurry-Rosser,98.34,181.44,92.99,188.24,462.66,Single-ply,SBD,M,
Boys,99.79,9,Jeremiah Gutierrez,Italy,99.7,197.31,95.25,158.76,451.32,Single-ply,SBD,M,
Boys,99.79,10,Erik Lara,Elkhart,91.44,185.97,106.59,156.49,449.06,Single-ply,SBD,M,
Boys,99.79,11,Coleman LeCour,Scurry-Rosser,92.26,172.37,104.33,170.1,446.79,Single-ply,SBD,M,
Boys,99.79,12,Ivan Chavez,Palmer,90.45,151.95,102.06,183.7,437.72,Single-ply,SBD,M,
Boys,99.79,13,Beau Crews,Scurry-Rosser,97.98,147.42,108.86,151.95,408.23,Single-ply,SBD,M,
Boys,99.79,14,Chris Guevara,Rice,92.26,158.76,79.38,151.95,390.09,Single-ply,SBD,M,
Boys,99.79,15,Juan Velazquez,Scurry-Rosser,96.52,140.61,92.99,140.61,374.21,Single-ply,SBD,M,
Boys,99.79,16,Landon Rayford,Maypearl,99.43,136.08,86.18,120.2,342.46,Single-ply,SBD,M,
Boys,99.79,17,Stephen Mendoza,Rice,97.07,70.31,52.16,88.45,210.92,Single-ply,SBD,M,
Boys,99.79,DQ,Evan Owen,Corsicana,90.72,208.65,145.15,,,Single-ply,SBD,M,
Boys,99.79,DQ,Rylee High,Hubbard,93.17,138.35,97.52,,,Single-ply,SBD,M,
Boys,99.79,DQ,Anthony Ovalle,Rice,98.16,185.97,,,,Single-ply,SBD,M,
Boys,99.79,DQ,Dalton Nizio,Rice,97.52,,,,,Single-ply,SBD,M,
Boys,99.79,DQ,Asa Guzman,Mexia,93.89,142.88,,,,Single-ply,SBD,M,
Boys,99.79,DQ,Trevor Barrientez,Red Oak,96.43,,,,,Single-ply,SBD,M,
Boys,109.77,1,Omar DeLaHoya,Italy,105.51,204.12,147.42,188.24,539.77,Single-ply,SBD,M,
Boys,109.77,2,Brock Links,Red Oak,109.32,181.44,111.13,210.92,503.49,Single-ply,SBD,M,
Boys,109.77,3,Joel Zarate,Waxahachie Life,106.14,172.37,113.4,167.83,453.59,Single-ply,SBD,M,
Boys,109.77,4,Mark Burgess,Maypearl,103.15,158.76,111.13,170.1,439.98,Single-ply,SBD,M,
Boys,109.77,5,Jerimiah Parish,Dawson,107.95,156.49,83.91,195.04,435.45,Single-ply,SBD,M,
Boys,109.77,6,Jonathan Killian,Waxahachie Life,108.32,151.95,95.25,158.76,405.97,Single-ply,SBD,M,
Boys,109.77,7,Elijah Smith,Waxahachie Life,105.51,161.03,90.72,151.95,403.7,Single-ply,SBD,M,
Boys,109.77,DQ,Christian Lopez #12,Mexia,109.77,,,,,Single-ply,SBD,M,
Boys,124.74,1,Jett Maxwell,Palmer,123.83,197.31,108.86,185.97,492.15,Single-ply,SBD,M,
Boys,124.74,2,Adrian Ramirez,Palmer,116.94,165.56,111.13,188.24,464.93,Single-ply,SBD,M,
Boys,124.74,3,Jonathan Mills #3,Hubbard,114.76,172.37,92.99,197.31,462.66,Single-ply,SBD,M,
Boys,124.74,4,Chris Ramos,Red Oak,121.2,165.56,102.06,183.7,451.32,Single-ply,SBD,M,
Boys,124.74,5,Tyler West,Scurry-Rosser,124.65,158.76,113.4,172.37,444.52,Single-ply,SBD,M,
Boys,124.74,6,John Gorrell,Maypearl,123.1,147.42,106.59,174.63,428.64,Single-ply,SBD,M,
Boys,124.74,7,Krew Patton,Maypearl,116.44,158.76,106.59,156.49,421.84,Single-ply,SBD,M,
Boys,124.74,DQ,Michael Wren,Dawson,120.29,226.8,106.59,,,Single-ply,SBD,M,
Boys,124.74,DQ,Gabe Dickey,Red Oak,110.4,,,,,Single-ply,SBD,M,
Boys,139.71,1,Bryce Ballard,Italy,129.18,254.01,154.22,197.31,605.55,Single-ply,SBD,M,
Boys,139.71,2,Gavin Shook,Red Oak,135.08,174.63,106.59,181.44,462.66,Single-ply,SBD,M,
Boys,139.71,3,Xavier West,Mexia,127.91,142.88,113.4,183.7,439.98,Single-ply,SBD,M,
Boys,139.71,4,Tre'Shun Henry,Hubbard,134.26,147.42,97.52,174.63,419.57,Single-ply,SBD,M,
Boys,139.71,5,Distin Griggs,Scurry-Rosser,134.04,151.95,83.91,181.44,417.3,Single-ply,SBD,M,
Boys,139.71+,1,Trent Tidwell,Hillsboro,143.15,229.06,176.9,204.12,610.08,Single-ply,SBD,M,
Boys,139.71+,2,Denton Fields,Hubbard,154.31,138.35,122.47,174.63,435.45,Single-ply,SBD,M,
Boys,139.71+,3,Isiah Kraayvanger,Hubbard,169.19,117.93,124.74,183.7,426.38,Single-ply,SBD,M,
