Place,WeightClassKg,Sex,Division,Name,BirthYear,Country,BodyweightKg,Best3SquatKg,Best3BenchKg,Best3DeadliftKg,TotalKg,Event,Equipment
1,47,F,Open,Widari Widari,1991,Indonesia,46.62,170,140,150,460,SBD,Single-ply
2,47,F,Open,Dwi Mardiana,1990,Indonesia,45.72,140,100,165,405,SBD,Single-ply
3,47,F,Open,Jayvanti Vasant Deshmukh,1988,India,46.96,135,72.5,142.5,350,SBD,Single-ply
4,47,F,Open,Ankita Ashok Mayekar,1989,India,45.58,145,57.5,140,342.5,SBD,Single-ply
5,47,F,Open,Mei-Xiang Liu,1983,Taiwan,45.66,137.5,60,130,327.5,SBD,Single-ply
1,52,F,Open,Leslie Evangelista,1981,Philippines,48.98,155,85,165,405,SBD,Single-ply
2,52,F,Open,Majiziya Bhanu,1990,India,51.12,140,70,152.5,362.5,SBD,Single-ply
3,52,F,Open,Mohini Laxman Sawant,1985,India,50.96,135,75,140,350,SBD,Single-ply
DQ,52,F,Open,Yen-Tzu Huang,1992,Taiwan,51.74,175,110,,,SBD,Single-ply
1,57,F,Open,Hui-Chun Wu,1986,Taiwan,56.94,195,140,200,535,SBD,Single-ply
2,57,F,Open,Margareth Tambunan,1993,Indonesia,56.42,170,130,185,485,SBD,Single-ply
3,57,F,Open,Julaeha Julaeha,1986,Indonesia,56.68,175,90,160,425,SBD,Single-ply
4,57,F,Open,Anita Koykka,1960,Philippines,55.66,150,102.5,165,417.5,SBD,Single-ply
1,63,F,Open,Sari Noviana,1984,Indonesia,60.78,180,130,205,515,SBD,Single-ply
2,63,F,Open,Yuli Sulastri,1992,Indonesia,61.94,200,135,175,510,SBD,Single-ply
1,72,F,Open,Aneu Veronica,1992,Indonesia,71.04,195,165,160,520,SBD,Single-ply
2,72,F,Open,Eka Prasetya Mardiana,1987,Indonesia,65.8,180,120,172.5,472.5,SBD,Single-ply
3,72,F,Open,Bhakti Ambre,1982,India,71.12,170,112.5,182.5,465,SBD,Single-ply
4,72,F,Open,Maria Maria,1990,Indonesia,67.74,180,117.5,165,462.5,SBD,Single-ply
5,72,F,Open,Joyce Gail Reboton,1992,Philippines,69.54,160,60,167.5,387.5,SBD,Single-ply
1,84,F,Open,Abhirami M. V,2000,India,80.76,180,82.5,167.5,430,SBD,Single-ply
2,84,F,Open,Olesya Gureeva,1980,Uzbekistan,81.72,150,85,100,335,SBD,Single-ply
DQ,84,F,Open,Sri Rahayu,1992,Indonesia,83.02,,145,180,,SBD,Single-ply
1,84+,F,Open,Fang-Yun Su,1992,Taiwan,119.34,285,132.5,195,612.5,SBD,Single-ply
2,84+,F,Open,Yi-Ting Pan,1990,Taiwan,91.28,185,85,180,450,SBD,Single-ply
DQ,84+,F,Open,Fitria Martiningsih,1993,Indonesia,101.62,220,,192.5,,SBD,Single-ply
1,43,F,Sub-Juniors,Ya-Syuan Jheng,1999,Taiwan,42.2,132.5,47.5,122.5,302.5,SBD,Single-ply
2,43,F,Sub-Juniors,Veronica Ompod,2000,Philippines,42.54,112.5,57.5,117.5,287.5,SBD,Single-ply
3,43,F,Sub-Juniors,Jessa Mae Tabuan,2002,Philippines,40.36,100,52.5,105,257.5,SBD,Single-ply
4,43,F,Sub-Juniors,Ayu Rusmawati,1999,Indonesia,41.8,100,42.5,100,242.5,SBD,Single-ply
1,47,F,Sub-Juniors,Andrea Rowella Abrea,1999,Philippines,46.76,112.5,62.5,110,285,SBD,Single-ply
2,47,F,Sub-Juniors,Putri Indriyani,2000,Indonesia,46.24,70,30,100,200,SBD,Single-ply
1,52,F,Sub-Juniors,Sherly Yulianti,2000,Indonesia,50.14,135,70,130,335,SBD,Single-ply
2,52,F,Sub-Juniors,Daisy Grace Lipasana,1999,Philippines,49.14,115,67.5,107.5,290,SBD,Single-ply
DQ,52,F,Juniors,Sudhir Tendulkar Suchita,1995,India,,,,,,SBD,Single-ply
1,57,F,Sub-Juniors,Mei Purnamasari,2001,Indonesia,56.14,150,85,152.5,387.5,SBD,Single-ply
2,57,F,Sub-Juniors,Jeremy Reign Bautista,1999,Philippines,55.16,130,87.5,130,347.5,SBD,Single-ply
3,57,F,Sub-Juniors,I-Ting Hsu,2001,Taiwan,56.34,140,50,132.5,322.5,SBD,Single-ply
1,63,F,Sub-Juniors,Vivi Hestikaryani,1999,Indonesia,60.3,140,75,127.5,342.5,SBD,Single-ply
2,63,F,Sub-Juniors,Angela Alferez,1999,Philippines,57.2,105,55,140,300,SBD,Single-ply
3,63,F,Sub-Juniors,Rista Veronica,2000,Indonesia,58.2,112.5,50,117.5,280,SBD,Single-ply
1,72,F,Sub-Juniors,Tika Rulini,2000,Indonesia,63.78,145,50,140,335,SBD,Single-ply
2,72,F,Sub-Juniors,Dastjerdi Shamis,2000,Iran,64.1,30,20,40,90,SBD,Single-ply
1,84,F,Sub-Juniors,Utari Utari,2002,Indonesia,72.46,125,70,125,320,SBD,Single-ply
1,43,F,Juniors,Joan Masangkay,1998,Philippines,40.22,100,47.5,110,257.5,SBD,Single-ply
1,47,F,Juniors,Hui-Chuan Huang,1996,Taiwan,46.96,120,80,135,335,SBD,Single-ply
1,52,F,Juniors,Sandra Diana Sari,1995,Indonesia,50.04,170,90,165,425,SBD,Single-ply
2,52,F,Juniors,Suchita Sudhir Tendulkar,1995,India,51.14,127.5,60,117.5,305,SBD,Single-ply
1,57,F,Juniors,Imas Kartika,1995,Indonesia,55.04,182.5,92.5,190,465,SBD,Single-ply
2,57,F,Juniors,Rajesh Nene Neha,1998,India,54.3,102.5,50,112.5,265,SBD,Single-ply
1,63,F,Juniors,Hsiu-Ching Hung,1995,Taiwan,60.78,187.5,92.5,187.5,467.5,SBD,Single-ply
2,63,F,Juniors,Intan Kemalasari,1996,Indonesia,60.5,190,102.5,162.5,455,SBD,Single-ply
3,63,F,Juniors,Lavanya Vemula,1996,India,62.36,165,90,160,415,SBD,Single-ply
4,63,F,Juniors,Diane Kathleen Chiang,1995,Philippines,61.66,165,90,150,405,SBD,Single-ply
1,72,F,Juniors,Mulia Anggraini,1997,Indonesia,67.68,187.5,110,180,477.5,SBD,Single-ply
2,72,F,Juniors,Warjinah Warjinah,1995,Indonesia,70.84,185,90,155,430,SBD,Single-ply
1,84,F,Juniors,Danielle Maxine Fugen,1995,Philippines,72.08,145,70,145,360,SBD,Single-ply
1,84+,F,Juniors,Yi-Chiao Chang,1997,Taiwan,93.46,180,92.5,150,422.5,SBD,Single-ply
2,84+,F,Juniors,Shreya Sunil Bordawekar,1998,India,110.32,160,82.5,142.5,385,SBD,Single-ply
DQ,84+,F,Juniors,Alexis Nicole Go,1996,Philippines,84.18,160,,155,,SBD,Single-ply
1,52,F,Masters 1,Tika Tika,1974,Indonesia,48.48,100,50,110,260,SBD,Single-ply
1,84,F,Masters 1,Jasmi Jasmi,1976,Indonesia,82.48,150,100,140,390,SBD,Single-ply
1,84+,F,Masters 1,Agustina Agustina,1970,Indonesia,84.6,120,60,170,350,SBD,Single-ply
1,52,F,Masters 2,Ching-Mei Wang,1962,Taiwan,47.56,45,27.5,100,172.5,SBD,Single-ply
1,63,F,Masters 2,Wing-Yuk Ip,1961,Hong Kong,61.76,102.5,75,125,302.5,SBD,Single-ply
2,63,F,Masters 2,Aley Lira Pervez,1959,India,60.2,100,52.5,122.5,275,SBD,Single-ply
1,84+,F,Masters 2,Ashok Tendulkar Anuja,1958,India,101.84,80,60,112.5,252.5,SBD,Single-ply
1,57,F,Masters 3,Seiko Omori,1951,Japan,54.92,132.5,72.5,105,310,SBD,Single-ply
1,63,F,Masters 4,Jayalakxmi Vaidyanathan,1943,India,61.42,60,30,80,170,SBD,Single-ply
1,59,M,Open,Yi-Chun Lin,1994,Taiwan,58.74,260,160,257.5,677.5,SBD,Single-ply
2,59,M,Open,Regie Ramirez,1993,Philippines,58.48,220,145,242.5,607.5,SBD,Single-ply
3,59,M,Open,Sihura Felinus,1987,Indonesia,57.62,240,150,200,590,SBD,Single-ply
4,59,M,Open,Pratik Namdev,1988,India,56.58,170,120,170,460,SBD,Single-ply
DQ,59,M,Open,Muji Setiono,1993,Indonesia,58.16,262.5,,250,,SBD,Single-ply
DQ,59,M,Open,Abdul Majeed Abdullah Albattashi,1991,Oman,59,195,,185,,SBD,Single-ply
1,66,M,Open,Faebolo Dodo Gowasa,1984,Indonesia,65.16,282.5,182.5,260,725,SBD,Single-ply
2,66,M,Open,Latief Awang Habir,1987,Indonesia,65.32,280,200,240,720,SBD,Single-ply
3,66,M,Open,Yahya Hilal Alkiyumi,1991,Oman,65.86,252.5,192.5,235,680,SBD,Single-ply
4,66,M,Open,Batsaikhan Dashdondog,1980,Mongolia,65.5,232.5,130,252.5,615,SBD,Single-ply
5,66,M,Open,Battogtokh Dorjpalam,1987,Mongolia,65.82,250,132.5,225,607.5,SBD,Single-ply
6,66,M,Open,Aiman Salim Alhasani,1991,Oman,65.6,220,152.5,215,587.5,SBD,Single-ply
7,66,M,Open,Clarence Wong,1989,Hong Kong,60.26,130,125,177.5,432.5,SBD,Single-ply
1,74,M,Open,Doni Meiyanto,1989,Indonesia,72.96,310,180,310,800,SBD,Single-ply
2,74,M,Open,Ching-Hong Feng,1978,Taiwan,73.32,240,190,252.5,682.5,SBD,Single-ply
3,74,M,Open,Vicky Chitare,1986,India,71.4,180,127.5,200,507.5,SBD,Single-ply
DQ,74,M,Open,Wing-Fai Hung,1978,Hong Kong,70.44,200,,190,,SBD,Single-ply
DQ,74,M,Open,Sham Singh Rana,1986,India,73.4,,,,,SBD,Single-ply
1,83,M,Open,Muhammad Yusuf,1986,Indonesia,82.2,270,195,335,800,SBD,Single-ply
2,83,M,Open,Kumar Amit,1989,India,75.1,272.5,150,265,687.5,SBD,Single-ply
3,83,M,Open,Singh Jaspreet,1989,India,81.46,270,165,250,685,SBD,Single-ply
4,83,M,Open,Ajinkya Chougale,1992,India,82.56,282.5,150,252.5,685,SBD,Single-ply
5,83,M,Open,Sergey Fotiev,1979,Uzbekistan,82.56,250,150,240,640,SBD,Single-ply
6,83,M,Open,Abdullah Yaqoub Mohamed Murad Almaazmi,1992,UAE,81.26,140,120,272.5,532.5,SBD,Single-ply
7,83,M,Open,Faisal Alzaabi,1978,UAE,82.5,160,217.5,150,527.5,SBD,Single-ply
8,83,M,Open,Singh Brar Beant,1993,India,81.38,160,105,190,455,SBD,Single-ply
9,83,M,Open,Lun Yu Shui,1980,Hong Kong,76,160,110,175,445,SBD,Single-ply
1,93,M,Open,Galsaikhan Myagmarsuren,1988,Mongolia,91.82,340,235,280,855,SBD,Single-ply
2,93,M,Open,Chin-Chia Yang,1991,Taiwan,92.26,345,210,300,855,SBD,Single-ply
3,93,M,Open,Thani Mohammed Said Aulad,1990,Oman,92.38,305,200,305,810,SBD,Single-ply
4,93,M,Open,Munkh-Erdene Samdankhuu,1984,Mongolia,91.86,300,245,242.5,787.5,SBD,Single-ply
5,93,M,Open,Masahito Kitsui,1978,Hong Kong,91.86,240,255,230,725,SBD,Single-ply
6,93,M,Open,Spencer Co,1993,Philippines,91.62,267.5,182.5,235,685,SBD,Single-ply
7,93,M,Open,M.D.M. Senaka,1988,Sri Lanka,92.82,255,120,230,605,SBD,Single-ply
8,93,M,Open,Salaiman Alhasni Dawood,1990,Oman,91.06,190,162.5,210,562.5,SBD,Single-ply
DQ,93,M,Open,Tatang Hidayat,1986,Indonesia,87.94,270,185,,,SBD,Single-ply
DQ,93,M,Open,Gil Lee Dae,1983,South Korea,92.8,260,,220,,SBD,Single-ply
1,105,M,Open,Sen Yang,1994,Taiwan,103.66,402.5,275,295,972.5,SBD,Single-ply
2,105,M,Open,Nohadi Nohadi,1980,Indonesia,103.92,325,230,282.5,837.5,SBD,Single-ply
3,105,M,Open,Indika Paranagama,1986,Sri Lanka,101.1,265,175,260,700,SBD,Single-ply
4,105,M,Open,Aditya Mahajan,1986,India,95.72,140,110,200,450,SBD,Single-ply
DQ,105,M,Open,Chun Sun Byung,1985,South Korea,96.68,225,,240,,SBD,Single-ply
DQ,105,M,Open,A.M.D. Kodikara,1992,Sri Lanka,99.56,265,175,,,SBD,Single-ply
DQ,105,M,Open,Andi Dwi Kurniawan,1990,Indonesia,99.7,,180,250,,SBD,Single-ply
DQ,105,M,Open,Salim Khamis Awlad Thani,1992,Oman,100.82,327.5,190,,,SBD,Single-ply
DQ,105,M,Open,Mohammed Ali Mohammed Alhumaidi ALkhanbouli,1980,UAE,103.9,160,220,,,SBD,Single-ply
DQ,105,M,Open,Batzul Shagdarsuren,1982,Mongolia,104.5,,232.5,270,,SBD,Single-ply
1,120,M,Open,Evgeniy Kapralov,1993,Uzbekistan,115,315,222.5,320,857.5,SBD,Single-ply
2,120,M,Open,Gantulga Batsukh,1981,Mongolia,112,340,240,265,845,SBD,Single-ply
3,120,M,Open,Ardani Ardani,1990,Indonesia,118.8,325,235,275,835,SBD,Single-ply
4,120,M,Open,Teguh Imam Santoso,1990,Indonesia,117.9,310,180,310,800,SBD,Single-ply
5,120,M,Open,Amandeep Arora,1989,India,116.34,320,212.5,260,792.5,SBD,Single-ply
6,120,M,Open,D.K.R. Jayathilaka,1986,Sri Lanka,118.18,300,165,322.5,787.5,SBD,Single-ply
7,120,M,Open,Qais Hamood Alhasni,1992,Oman,110.62,255,180,240,675,SBD,Single-ply
8,120,M,Open,Erdenekhuu Tumurbaatar,1985,Mongolia,114.2,150,300,150,600,SBD,Single-ply
1,120+,M,Open,Chi-Sen Tien,1994,Taiwan,120.1,395,265,330,990,SBD,Single-ply
2,120+,M,Open,Asep Nurdin,1990,Indonesia,150.2,370,272.5,300,942.5,SBD,Single-ply
3,120+,M,Open,Yevgeniy Yevdokimov,1980,Kazakhstan,124.54,350,225,280,855,SBD,Single-ply
4,120+,M,Open,Ankhbayar Damdin,1979,Mongolia,140,330,260,240,830,SBD,Single-ply
5,120+,M,Open,Udaysing Amit,1990,India,129.5,325,190,282.5,797.5,SBD,Single-ply
6,120+,M,Open,Chai-Chi Fong,1982,Hong Kong,135.58,270,240,210,720,SBD,Single-ply
7,120+,M,Open,Singh Tarandeep,1989,India,136.62,290,130,180,600,SBD,Single-ply
DQ,120+,M,Open,Goncalwes Sirait,1990,Indonesia,120.04,,140,280,,SBD,Single-ply
DQ,120+,M,Open,Darin Weerasinghe,1983,Sri Lanka,123.16,220,210,,,SBD,Single-ply
1,53,M,Sub-Juniors,Syaifahmi Riski,1999,Indonesia,51.5,155,85,150,390,SBD,Single-ply
2,53,M,Sub-Juniors,Redha Al-Sarray,2001,Iraq,51.48,130,52.5,135,317.5,SBD,Single-ply
1,59,M,Sub-Juniors,Prasetia Ramadhan,2000,Indonesia,58.82,180,70,190,440,SBD,Single-ply
2,59,M,Sub-Juniors,Taha Zubaidi,2001,Iraq,57.82,140,65,130,335,SBD,Single-ply
1,66,M,Sub-Juniors,Yu-Hsiang Wang,1999,Taiwan,65.68,210,120,210,540,SBD,Single-ply
2,66,M,Sub-Juniors,Ahmed Al-Zajrawee,1999,Iraq,64.62,175,120,170,465,SBD,Single-ply
3,66,M,Sub-Juniors,Murtadha Al-Ogaili,1999,Iraq,64.84,190,95,180,465,SBD,Single-ply
4,66,M,Sub-Juniors,Mohamed Murad Almaazmi Ali Yaqoub,2001,UAE,65.84,70,90,172.5,332.5,SBD,Single-ply
5,66,M,Sub-Juniors,Balavaseekaran T.M,2001,India,65.9,125,62.5,142.5,330,SBD,Single-ply
1,74,M,Sub-Juniors,Yu-Jui Cheng,1999,Taiwan,71.68,280.5,140,260,680.5,SBD,Single-ply
2,74,M,Sub-Juniors,Nooruldeen Al-Bdairi,1999,Iraq,69.7,152.5,95,155,402.5,SBD,Single-ply
3,74,M,Sub-Juniors,Dendi Aditia,2000,Indonesia,67.7,152.5,70,170,392.5,SBD,Single-ply
1,83,M,Sub-Juniors,Thani Mohammed Moosa Aulad,2000,Oman,75.68,170,72.5,200,442.5,SBD,Single-ply
2,83,M,Sub-Juniors,Raden Bratamusti,2001,Indonesia,77.12,180,72.5,170,422.5,SBD,Single-ply
1,93,M,Sub-Juniors,Abbas Al-Sarray,2000,Iraq,84.72,202.5,110,215,527.5,SBD,Single-ply
2,93,M,Sub-Juniors,Muhammad Didit,2000,Indonesia,89.66,200,100,180,480,SBD,Single-ply
1,105,M,Sub-Juniors,Bilguun Javkhlanbayar,1999,Mongolia,103.76,220,140,220,580,SBD,Single-ply
2,105,M,Sub-Juniors,Mohammed Ali Hamad Almahri Aaref,2000,UAE,103.8,60,90,100,250,SBD,Single-ply
1,120,M,Sub-Juniors,Reza Reza,2000,Indonesia,111.38,260,175,260,695,SBD,Single-ply
1,120+,M,Sub-Juniors,Abbas Saeed,2000,Iraq,124.05,200,110,180,490,SBD,Single-ply
1,53,M,Juniors,Ali Hasan,1997,Iraq,50.68,130,65,135,330,SBD,Single-ply
1,59,M,Juniors,Madiyar Nurzhanov,1994,Kazakhstan,58.32,182.5,115,185,482.5,SBD,Single-ply
DQ,59,M,Juniors,Erdenetsogt Amarbayasgal An,1994,Mongolia,58.1,,70,100,,SBD,Single-ply
1,66,M,Juniors,Viki Aryanto,1994,Indonesia,65.42,300,180,290,770,SBD,Single-ply
2,66,M,Juniors,Ispandiyar Kairzhan,1997,Kazakhstan,65.42,240,167.5,240,647.5,SBD,Single-ply
3,66,M,Juniors,Bismar Maulana,1997,Indonesia,60.4,220,115,210,545,SBD,Single-ply
1,74,M,Juniors,Willy Sandra,1998,Indonesia,73.24,320,200,260,780,SBD,Single-ply
2,74,M,Juniors,Chung-Chih Cheng,1996,Taiwan,71.8,280,160,270,710,SBD,Single-ply
3,74,M,Juniors,Kenneth John Bais,1997,Philippines,72.12,190,100,205,495,SBD,Single-ply
1,83,M,Juniors,You-Si Jhang,1994,Taiwan,82.02,265,175,295,735,SBD,Single-ply
2,83,M,Juniors,Hamzah Amir S,1995,Indonesia,81.54,240,165,265,670,SBD,Single-ply
3,83,M,Juniors,K.K.H. Dilhara,1994,Sri Lanka,81.72,255,132.5,225,612.5,SBD,Single-ply
4,83,M,Juniors,Bhavesh Dabhani,1995,India,80.98,170,120,187.5,477.5,SBD,Single-ply
1,93,M,Juniors,Thani Nabras Nabeel Awlad,1998,Oman,90.42,267.5,162.5,275,705,SBD,Single-ply
2,93,M,Juniors,Imam Syahrudin,1998,Indonesia,89.8,260,180,250,690,SBD,Single-ply
3,93,M,Juniors,Rustam Saifutdinov,1998,Kazakhstan,84.38,285,160,235,680,SBD,Single-ply
4,93,M,Juniors,Ashwin Ashwin,1995,India,87.9,210,125,210,545,SBD,Single-ply
5,93,M,Juniors,Koustabh Ghosh,1995,India,89.64,190,105,215,510,SBD,Single-ply
1,105,M,Juniors,Kiran Kunal Patil,1994,India,93.2,162.5,135,202.5,500,SBD,Single-ply
1,120,M,Juniors,Dorj Myagmarjav,1995,Mongolia,116.82,280,231,252.5,763.5,SBD,Single-ply
2,120,M,Juniors,Ansyari Ansyari,1997,Indonesia,114.48,310,180,210,700,SBD,Single-ply
3,120,M,Juniors,Nasser Alnadabi Fahad,1998,Oman,113.12,255,160,260,675,SBD,Single-ply
1,120+,M,Juniors,Prasetya Bintang,1997,Indonesia,215,160,77.5,177.5,415,SBD,Single-ply
1,66,M,Masters 1,Misdan Yunip,1976,Indonesia,65.12,130,100,150,380,SBD,Single-ply
1,74,M,Masters 1,Chakhar Tumurbaatar,1974,Mongolia,72.66,192.5,147.5,170,510,SBD,Single-ply
DQ,74,M,Masters 1,Indrajith Ramavickrama,1969,Sri Lanka,74,150,,160,,SBD,Single-ply
1,83,M,Masters 1,Sajeev K.S,1972,India,82.02,235,130,255,620,SBD,Single-ply
2,83,M,Masters 1,Triharyanto Petrus,1970,Indonesia,79.82,125,125,125,375,SBD,Single-ply
1,93,M,Masters 1,Mitsuhisa Ogawa,1971,Japan,91.72,235,205,230,670,SBD,Single-ply
2,93,M,Masters 1,Dashzevge Battogtokh,1976,Mongolia,89.76,235,120,230,585,SBD,Single-ply
3,93,M,Masters 1,Konstantin Khardin,1968,Uzbekistan,86.8,220,140,100,460,SBD,Single-ply
1,105,M,Masters 1,Uuganbayar Damdin,1976,Mongolia,98.92,280,230,242.5,752.5,SBD,Single-ply
2,105,M,Masters 1,G.H.J. Fernando,1975,Sri Lanka,94.88,240,135,230,605,SBD,Single-ply
1,120,M,Masters 1,Pastjerdi Mohammad,1974,Iran,113.3,120,100,100,320,SBD,Single-ply
1,120+,M,Masters 1,Bayarkhuu Tserendamba,1971,Mongolia,125.78,225,185,245,655,SBD,Single-ply
1,66,M,Masters 2,Tai-Shan Yang,1962,Taiwan,65.28,100,130.5,142.5,373,SBD,Single-ply
2,66,M,Masters 2,Hok Seng Thio,1963,Indonesia,63.8,110,30,160,300,SBD,Single-ply
1,74,M,Masters 2,Suluhmi Halefa,1964,Indonesia,68.9,190,107.5,195,492.5,SBD,Single-ply
2,74,M,Masters 2,Gable Wang Ka Po,1959,Hong Kong,72.4,120,107.5,170,397.5,SBD,Single-ply
1,83,M,Masters 2,Venu E. N,1966,India,80.16,200,110,185,495,SBD,Single-ply
2,83,M,Masters 2,Usdi Permana,1963,Indonesia,76.5,130,52.5,142.5,325,SBD,Single-ply
3,83,M,Masters 1,Sugeng Muchtar,1968,Indonesia,79.94,115,80,130,325,SBD,Single-ply
1,93,M,Masters 2,TK Vikas,1962,India,90.26,220,117.5,220,557.5,SBD,Single-ply
2,93,M,Masters 2,Agus Bambang,1965,Indonesia,83.14,180,120,150,450,SBD,Single-ply
3,93,M,Masters 2,Shyam Sahni,1959,India,90.56,120,100,132.5,352.5,SBD,Single-ply
1,105,M,Masters 2,Yusei Nakashima,1963,Japan,102.74,230,200,220,650,SBD,Single-ply
2,105,M,Masters 2,Yanto Arifin,1964,Indonesia,96.4,105,95,125,325,SBD,Single-ply
1,120,M,Masters 2,Prakash Masi Satya,1958,India,109.86,140,80,150,370,SBD,Single-ply
1,83,M,Masters 3,Chien-Lih Hwang,1953,Taiwan,76.44,142.5,150.5,135,428,SBD,Single-ply
1,105,M,Masters 3,C.N. Murty,1955,India,93.54,82.5,50,125,257.5,SBD,Single-ply
1,59,M,Masters 4,Kung-Him Wong,1947,Hong Kong,52.26,120,85,142.5,347.5,SBD,Single-ply
1,66,M,Masters 4,R. Vaidyanathan,1935,India,60.64,85,27.5,105,217.5,SBD,Single-ply
1,74,M,Masters 4,Satoru Takita,1947,Japan,73.28,185,105,180,470,SBD,Single-ply
2,74,M,Masters 4,Mitsuru Osawa,1941,Japan,72.62,160,107.5,160,427.5,SBD,Single-ply
