Place,Name,Sex,Event,Division,WeightClassKg,Equipment,BirthYear,State,BodyweightKg,Squat1Kg,Squat2Kg,Squat3Kg,Best3SquatKg,Bench1Kg,Bench2Kg,Bench3Kg,Best3BenchKg,Deadlift1Kg,Deadlift2Kg,Deadlift3Kg,Best3DeadliftKg,TotalKg,Age,BirthDate
1,Clint Poore,M,B,MR-M1,120,Raw,1973,KY,113.46,,,,,25,,,25.0,,,,,25,,
1,Natalie Richards #1,F,SBD,FR-O,63,Raw,1998,NC,58.62,65,,,65.0,65,,,65.0,65,,,65.0,195,,
1,Brian Cochran,M,SBD,MR-M1,120,Raw,1975,GA,112.78,170,185,200,200.0,130,142.5,-147.5,142.5,180,200,-220,200.0,542.5,,
1,Wesley Mull,M,SBD,MR-O,93,Raw,1995,NC,92.36,175,,,175.0,145,,,145.0,175,,,175.0,495,,
