WeightClassKg,Name,BirthYear,Team,BodyweightKg,Squat1Kg,Squat2Kg,Squat3Kg,Best3SquatKg,Bench1Kg,Bench2Kg,Bench3Kg,Best3BenchKg,Deadlift1Kg,Deadlift2Kg,Deadlift3Kg,Best3DeadliftKg,TotalKg,Place,Division,Equipment,Sex,Event,BirthDate
57,Katja Babič,1993,OLI,55.91,137.5,145.5,150,150,72.5,77.5,80,80,155,163,-170,163,393,1,O,Raw,F,SBD,
57,Maruša Traven,1993,OLI,56.88,110,115,-120,115,60,65,-67.5,65,122.5,127.5,132.5,132.5,312.5,2,O,Raw,F,SBD,
57,Eva Strgar,2005,SAM,55,112.5,117.5,-122.5,117.5,52.5,57.5,60,60,115,120,125,125,302.5,3,O,Raw,F,SBD,
57,Suzana Potocnik,2000,POL,55.49,85,92.5,100,100,37.5,42.5,-47.5,42.5,85,92.5,-100,92.5,235,4,O,Raw,F,SBD,
57,Kolar Patricija Jesih,2004,SAM,54.91,60,67.5,72.5,72.5,37.5,40,42.5,42.5,80,92.5,102.5,102.5,217.5,5,O,Raw,F,SBD,
63,Ida Janež,2002,OLI,62.34,117.5,125,132.5,132.5,65,70,72.5,72.5,132.5,142.5,150.5,150.5,355.5,1,O,Raw,F,SBD,
63,Tjasa Vagaja,2000,OLI,61.62,105,112.5,117.5,117.5,65,67.5,70,70,120,127.5,132.5,132.5,320,2,O,Raw,F,SBD,
63,Tara Petra Klinc,1996,OLI,62.64,-100,102.5,107.5,107.5,50,55,-57.5,55,132.5,-142.5,-145,132.5,295,3,O,Raw,F,SBD,
63,Ana Dolžan,2001,OLI,61.03,82.5,87.5,92.5,92.5,45,47.5,-50,47.5,100,105,112.5,112.5,252.5,4,O,Raw,F,SBD,
63,Kim Riznič,2003,OLI,57.65,90,95,-100,95,42.5,45,47.5,47.5,100,105,107.5,107.5,250,5,O,Raw,F,SBD,
69,Klara Bolta,1996,OLI,64.25,127.5,132.5,135,135,65,-67.5,-67.5,65,160,165,167.5,167.5,367.5,1,O,Raw,F,SBD,
69,Ula Humar,2002,POL,64.61,125,-132.5,132.5,132.5,60,65,67.5,67.5,147.5,155,162.5,162.5,362.5,2,O,Raw,F,SBD,
69,Anja Rutar,1996,OLI,66.36,115,125,130,130,50,55,57.5,57.5,157.5,167.5,173,173,360.5,3,O,Raw,F,SBD,
69,Brina Obreza,2001,OSK,67.43,122.5,-127.5,-127.5,122.5,62.5,-67.5,-67.5,62.5,132.5,137.5,-140,137.5,322.5,4,O,Raw,F,SBD,
69,Lucija Sovic,1998,THOR,67.59,110,-117.5,-117.5,110,47.5,50,52.5,52.5,117.5,122.5,127.5,127.5,290,5,O,Raw,F,SBD,
69,Maja Apat,1998,POL,66.8,85,90,-95,90,67.5,-70,70,70,110,117.5,122.5,122.5,282.5,6,O,Raw,F,SBD,
69,Eva Zagoricnik,1997,GROM,65.04,85,97.5,-107.5,97.5,45,50,-55,50,105,115,122.5,122.5,270,7,O,Raw,F,SBD,
69,Jasna Lah,2000,THOR,66.28,90,95,-100,95,45,47.5,-50,47.5,115,122.5,125,125,267.5,8,O,Raw,F,SBD,
69,Urska Fon,1997,OLI,65.29,60,65,70,70,30,32.5,35,35,87.5,95,100,100,205,9,O,Raw,F,SBD,
76,Nuša Železnik,2000,POL,75,167.5,177.5,-180,177.5,87.5,-92.5,95.5,95.5,175,190,-199,190,463,1,O,Raw,F,SBD,
76,Nina Curic,2006,THOR,70.34,107.5,115,120,120,47.5,50,52.5,52.5,135,145,150,150,322.5,2,O,Raw,F,SBD,
76,Istina Rozman,2004,OLI,72.85,75,80,85,85,62.5,67.5,70,70,125,132.5,137.5,137.5,292.5,3,O,Raw,F,SBD,
76,Sara Eva Radovanovic,2005,SAM,75.98,105,112.5,-117.5,112.5,42.5,45,-47.5,45,125,135,-137.5,135,292.5,4,O,Raw,F,SBD,
84,Meta Vrazic,1997,OLI,83.96,105,-110,-110,105,-55,57.5,-60,57.5,120,125,130,130,292.5,1,O,Raw,F,SBD,
84,Eva Penko,2005,OSK,80.91,85,87.5,-95,87.5,42.5,47.5,-50,47.5,105,115,120,120,255,2,O,Raw,F,SBD,
84+,Martina Sosič,2003,OLI,100.58,145,152.5,160,160,57.5,62.5,65,65,140,145,160,160,385,1,O,Raw,F,SBD,
84+,Manja Fajdiga,1986,OLI,108.56,130,140,147.5,147.5,65,73.5,75,75,125,143.5,150.5,150.5,373,2,O,Raw,F,SBD,
84+,Špela Videc,1996,THOR,93.22,95,102.5,-107.5,102.5,57.5,60,62.5,62.5,117.5,125,130,130,295,3,O,Raw,F,SBD,
84+,Tina Režek,1980,OLI,106.36,92.5,-107.5,-107.5,92.5,55,60,-65,60,120,-127.5,,120,272.5,4,O,Raw,F,SBD,
74,Tomaž Prijanovič,1993,OLI,72.98,212.5,-220,-220,212.5,147.5,152.5,155.5,155.5,225,232.5,240,240,608,1,O,Raw,M,SBD,
74,Nejc Rus,2002,GROM,73.27,215,220,-225,220,127.5,132.5,135,135,227.5,232.5,-240,232.5,587.5,2,O,Raw,M,SBD,
74,Dario Spajic,2001,OLI,73.87,177.5,187.5,195,195,122.5,-130,130,130,225,237.5,242.5,242.5,567.5,3,O,Raw,M,SBD,
74,Stas Orazem,2004,OLI,71.94,-170,175,185,185,122.5,130,135,135,200,215,225,225,545,4,O,Raw,M,SBD,
74,Rudi Starc,1997,POL,73.13,180,190,-192.5,190,130,137.5,142.5,142.5,190,200,-210,200,532.5,5,O,Raw,M,SBD,
74,Gašper Meden,1988,GROM,72.24,162.5,172.5,177.5,177.5,122.5,130,135,135,190,202.5,-212.5,202.5,515,6,O,Raw,M,SBD,
74,David But,1989,POL,70.73,170,-177.5,177.5,177.5,107.5,112.5,-117.5,112.5,200,207.5,-210,207.5,497.5,7,O,Raw,M,SBD,
74,Matija Lakner,2006,POL,72.35,170,180,187.5,187.5,95,102.5,110,110,190,200,-210,200,497.5,8,O,Raw,M,SBD,
74,Jan Jerman,1996,THOR,68.82,120,122.5,130,130,80,85,-90,85,145,155,165,165,380,9,O,Raw,M,SBD,
74,Marsel Debelak,2006,THOR,71.9,115,-120,122.5,122.5,70,72.5,75,75,155,162.5,170,170,367.5,10,O,Raw,M,SBD,
74,Boris Berden,1980,THOR,69.45,70,87.5,100,100,55,65,-75,65,85,100,,100,265,11,O,Raw,M,SBD,
83,Urban Mur,1993,OLI,82.75,190,207.5,215,215,157.5,162.5,167.5,167.5,215,227.5,237.5,237.5,620,1,O,Raw,M,SBD,
83,Denis Kocar,2000,THOR,76.93,185,197.5,207.5,207.5,145,155,162.5,162.5,222.5,235,242.5,242.5,612.5,2,O,Raw,M,SBD,
83,Anže Strgar,1995,SAM,80.35,215,227.5,232.5,232.5,125,130,135,135,222.5,235,-247.5,235,602.5,3,O,Raw,M,SBD,
83,Zan Lovsin,2001,GROM,81.53,207.5,215,-225,215,145,-152.5,-155,145,225,232.5,240,240,600,4,O,Raw,M,SBD,
83,Daniel Hari,1996,THOR,79.84,200,210,217.5,217.5,125,-127.5,-127.5,125,220,230,240,240,582.5,5,O,Raw,M,SBD,
83,Daniel Djurić,1997,SAM,81.36,185,197.5,205,205,135,-142.5,-142.5,135,202.5,215,225,225,565,6,O,Raw,M,SBD,
83,Patrik Kodba,1994,OLI,81.48,177.5,190,197.5,197.5,117.5,125,130,130,205,220,230,230,557.5,7,O,Raw,M,SBD,
83,Rene Gornik,2004,THOR,80.74,190,-205,-207.5,190,125,132.5,-137.5,132.5,215,230,232.5,232.5,555,8,O,Raw,M,SBD,
83,Matej Žunko,2001,OLI,79.71,-180,-180,180,180,127.5,135,140,140,200,-225,225,225,545,9,O,Raw,M,SBD,
83,Matej Fortuna,1998,POL,81.22,185,195,205,205,102.5,110,115,115,197.5,210,225,225,545,10,O,Raw,M,SBD,
83,Zan Tomic,1997,POL,82.62,190,200,205,205,122.5,-130,130,130,195,210,-220,210,545,11,O,Raw,M,SBD,
83,Jakob Preskar,1998,POL,81.63,190,200,-205,200,115,-120,-120,115,215,225,-230,225,540,12,O,Raw,M,SBD,
83,Miha Pesic,1999,OLI,82.55,165,-172.5,180,180,102.5,-110,112.5,112.5,197.5,210,217.5,217.5,510,13,O,Raw,M,SBD,
83,Istian Castellani,1997,DISC,79.17,165,175,-182.5,175,125,-130,-130,125,175,187.5,200,200,500,14,O,Raw,M,SBD,
83,Matic Gabrovec,2006,POL,76.92,160,-170,170,170,102.5,110,-115,110,185,200,-210,200,480,15,O,Raw,M,SBD,
83,Luka Fortuna,2005,POL,82.25,157.5,167.5,172.5,172.5,85,90,92.5,92.5,165,175,185,185,450,16,O,Raw,M,SBD,
83,Gal Pevec,2005,GROM,81.06,125,127.5,145,145,75,82.5,-87.5,82.5,185,-200,200,200,427.5,17,O,Raw,M,SBD,
83,Miha Medved,1998,GROM,81.41,-145,-155,155,155,90,95,-100,95,150,155,160,160,410,18,O,Raw,M,SBD,
83,Rok Kolmanic,2004,OLI,76.21,117.5,125,132.5,132.5,72.5,77.5,82.5,82.5,137.5,145,150,150,365,19,O,Raw,M,SBD,
93,Matej Grilc,1996,OLI,91.41,215,230,-240,230,165,175,-180.5,175,-265,280,-285,280,685,1,O,Raw,M,SBD,
93,Jan Lavric,2000,GROM,92.43,225,235,242.5,242.5,135,142.5,147.5,147.5,235,250,-260,250,640,2,O,Raw,M,SBD,
93,Max Horvat,2003,THOR,91.57,197.5,210,217.5,217.5,117.5,125,-127.5,125,217.5,232.5,240,240,582.5,3,O,Raw,M,SBD,
93,Blaz Kosuta,2001,OLI,87.42,187.5,197.5,202.5,202.5,125,132.5,135,135,220,232.5,237.5,237.5,575,4,O,Raw,M,SBD,
93,Uros Mackovsek,1990,POL,91.84,180,190,200,200,110,122.5,-130,122.5,220,235,250,250,572.5,5,O,Raw,M,SBD,
93,Istian Hren,1997,OLI,91.44,190,202.5,210,210,130,137.5,145,145,195,205,212.5,212.5,567.5,6,O,Raw,M,SBD,
93,Žiga Žabkar,1997,THOR,92.34,200,207.5,-212.5,207.5,120,127.5,130,130,220,230,-240,230,567.5,7,O,Raw,M,SBD,
93,Gregor Obreza,1995,OLI,90.5,182.5,195,202.5,202.5,117.5,-125,-125,117.5,220,235,245,245,565,8,O,Raw,M,SBD,
93,Maj Dular,2002,OLI,89.15,-185,-185,185,185,-150,150,-155,150,200,210,217.5,217.5,552.5,9,O,Raw,M,SBD,
93,Matej Sel,2001,THOR,92.4,190,200,210,210,-125,127.5,-135,127.5,205,-220,-225,205,542.5,10,O,Raw,M,SBD,
93,David Kovacic,2003,GROM,89.51,172.5,182.5,190,190,105,110,115,115,200,215,225,225,530,11,O,Raw,M,SBD,
93,Nik Izanec,2002,POL,90.15,160,167.5,175,175,107.5,115,122.5,122.5,207.5,215,225,225,522.5,12,O,Raw,M,SBD,
93,Simon Vovko,1980,OLI,84.71,170,180,190,190,100,105,110,110,200,210,220,220,520,13,O,Raw,M,SBD,
93,Luka Cerne,2001,POL,92.29,155,165,172.5,172.5,107.5,-115,115,115,207.5,220,230,230,517.5,14,O,Raw,M,SBD,
93,Jaka Ajnc,2004,THOR,84.12,150,-160,162.5,162.5,95,-102.5,-102.5,95,190,200,205,205,462.5,15,O,Raw,M,SBD,
93,Aljoša Stankovič,2005,OLI,92.31,150,152.5,155,155,85,87.5,90,90,160,165,170,170,415,16,O,Raw,M,SBD,
93,Miro Habjanic,1953,OLI,91.23,97.5,105,110,110,65,70,-75,70,140,150,155,155,335,17,O,Raw,M,SBD,
93,Peter Radosavljević,2002,OSK,84.35,80,90,100,100,60,70,80,80,110,130,145,145,325,18,O,Raw,M,SBD,
93,Iztok Kocevar,1986,POL,87.89,235,245,-247.5,245,-132.5,-132.5,-132.5,,280,-300,-300,280,,DQ,O,Raw,M,SBD,
105,Uros Pihler,1996,POL,104.05,250,262.5,272.5,272.5,145,152.5,155,155,302.5,320,-333,320,747.5,1,O,Raw,M,SBD,
105,Matevz Bratina,1996,THOR,100.03,225,240,247.5,247.5,152.5,162.5,-165,162.5,235,250,257.5,257.5,667.5,2,O,Raw,M,SBD,
105,Rok Kar,1993,THOR,102.4,215,227.5,235,235,142.5,150,155,155,272.5,-282.5,-285,272.5,662.5,3,O,Raw,M,SBD,
105,David Požar,1991,DISC,103.96,230,235,-242.5,235,150,157.5,162.5,162.5,250,260,-265,260,657.5,4,O,Raw,M,SBD,
105,Luka Lavtar,1994,POL,102.04,195,205,215,215,117.5,125,-130,125,260,-275,275,275,615,5,O,Raw,M,SBD,
105,Rene Vivod,2002,THOR,102.24,195,202.5,-207.5,202.5,127.5,132.5,137.5,137.5,245,255,260,260,600,6,O,Raw,M,SBD,
105,Erazem Ivanc,2001,GROM,102.84,202.5,215,-220,215,127.5,135,-140,135,225,235,242.5,242.5,592.5,7,O,Raw,M,SBD,
105,Jakob Udovic,1999,OLI,94.79,180,192.5,200,200,112.5,117.5,130,130,190,210,230,230,560,8,O,Raw,M,SBD,
105,Žan Vodan,1995,THOR,100.06,165,-175,175,175,125,-132.5,-137.5,125,205,215,-230,215,515,9,O,Raw,M,SBD,
105,Nik Prosenjak,2004,THOR,93.57,165,172.5,180,180,95,97.5,-102.5,97.5,200,215,222.5,222.5,500,10,O,Raw,M,SBD,
105,Matic Vasle,2000,POL,102.73,157.5,167.5,175,175,80,85,-90,85,165,177.5,185,185,445,11,O,Raw,M,SBD,
105,Miro Radosavljević,1967,OSK,95.86,-90,90,105,105,75,80,-90,80,100,120,-140,120,305,12,O,Raw,M,SBD,
120,Tadej Kovačič,1992,GROM,119.3,275,292.5,303,303,150,157.5,160,160,275,292.5,-309,292.5,755.5,1,O,Raw,M,SBD,
120,Edvin Hadžić,1998,POL,117.66,-242.5,247.5,260,260,152.5,160,162.5,162.5,245,260,-272.5,260,682.5,2,O,Raw,M,SBD,
120,Luka Jalšovec,1989,GROM,115.81,230,242.5,250,250,160,170,-180.5,170,240,260,-272.5,260,680,3,O,Raw,M,SBD,
120,Urban Mohoric,2001,GROM,117.47,210,220,235,235,150,157.5,165,165,220,-235,240,240,640,4,O,Raw,M,SBD,
120+,Zan Rednak,1996,POL,143.34,230,245,255,255,142.5,152.5,160,160,230,242.5,252.5,252.5,667.5,1,O,Raw,M,SBD,
120+,Lan Znidarsic,2003,THOR,162,-190,190,205,205,122.5,127.5,130,130,175,197.5,205,205,540,2,O,Raw,M,SBD,
93,Maxence Brunet,2001,OLI,92.57,155,167.5,175,175,110,120,125,125,207.5,222.5,235,235,535,G,Guest,Raw,M,SBD,
93,Aleksandar Mandic,1997,DISC,92.22,165,175,-182.5,175,105,112.5,-120,112.5,175,185,195,195,482.5,G,Guest,Raw,M,SBD,
105,Gasper Klauzar,1995,GROM,96.54,167.5,177.5,-182.5,177.5,102.5,110,115,115,167.5,177.5,185,185,,DQ,O,Raw,M,SBD,
