Division,WeightClassKg,Place,Name,Team,BodyweightKg,Best3SquatKg,Best3BenchKg,Best3DeadliftKg,TotalKg,Equipment,Event,Sex,BirthDate
Boys,51.71,1,Bryan Diaz,Longview Pine Tree,49.26,113.4,68.04,127.01,308.44,Single-ply,SBD,M,
Boys,51.71,2,Micheal Lawrence,Brownsboro,51.26,106.59,68.04,124.74,299.37,Single-ply,SBD,M,
Boys,51.71,3,Nathan Sherman,Brownsboro,51.26,108.86,56.7,122.47,288.03,Single-ply,SBD,M,
Boys,51.71,4,Steven Arvizo,Brownsboro,50.98,102.06,61.23,120.2,283.5,Single-ply,SBD,M,
Boys,51.71,5,Ethan Braun,Brownsboro,50.98,106.59,61.23,111.13,278.96,Single-ply,SBD,M,
Boys,51.71,6,Bryan Nunez,Longview Pine Tree,49.99,92.99,65.77,117.93,276.69,Single-ply,SBD,M,
Boys,51.71,7,Kaleb Dollison,Longview Pine Tree,50.67,108.86,54.43,111.13,274.42,Single-ply,SBD,M,
Boys,51.71,8,Steve Nunez,Longview Pine Tree,50.44,86.18,65.77,117.93,269.89,Single-ply,SBD,M,
Boys,51.71,9,Aden Luna,Ore City,50.98,95.25,61.23,106.59,263.08,Single-ply,SBD,M,
Boys,51.71,10,Ethan Folsom,Forney,49.53,79.38,65.77,81.65,226.8,Single-ply,SBD,M,
Boys,55.79,1,Benito Castro,Longview Pine Tree,54.98,122.47,68.04,149.69,340.19,Single-ply,SBD,M,
Boys,55.79,2,Jacob Juarez,Longview Pine Tree,55.7,117.93,72.57,149.69,340.19,Single-ply,SBD,M,
Boys,55.79,3,Cy Sledge,Henderson,53.07,124.74,79.38,129.27,333.39,Single-ply,SBD,M,
Boys,55.79,4,Aven Blaylock,Tyler,55.7,92.99,54.43,111.13,258.55,Single-ply,SBD,M,
Boys,55.79,5,Jonathan Mosley,Tatum,51.8,88.45,54.43,106.59,249.48,Single-ply,SBD,M,
Boys,59.87,1,Earl Williams,Longview Pine Tree,59.78,172.37,104.33,172.37,449.06,Single-ply,SBD,M,
Boys,59.87,2,David Chavez,Mount Pleasant,59.42,149.69,86.18,154.22,390.09,Single-ply,SBD,M,
Boys,59.87,3,Randall Phillips,Hawkins,58.79,102.06,52.16,142.88,297.1,Single-ply,SBD,M,
Boys,59.87,DQ,Jayden Williams,Tatum,57.06,,,,,Single-ply,SBD,M,
Boys,67.13,1,Easton McMillan,Forney,65.95,210.92,113.4,192.78,517.1,Single-ply,SBD,M,
Boys,67.13,2,Hunter Branson,Hallsville,66.68,188.24,129.27,174.63,492.15,Single-ply,SBD,M,
Boys,67.13,3,Martin Camargo,Henderson,67.13,188.24,90.72,197.31,476.27,Single-ply,SBD,M,
Boys,67.13,4,Gage Shirts,Harleton,66.22,183.7,102.06,163.29,449.06,Single-ply,SBD,M,
Boys,67.13,5,Raimone Flournoy,Longview Pine Tree,66.95,167.83,104.33,172.37,444.52,Single-ply,SBD,M,
Boys,67.13,6,Kyle Ritter,Ore City,65.5,149.69,95.25,174.63,419.57,Single-ply,SBD,M,
Boys,67.13,7,Sam Lewis,Hawkins,67,156.49,92.99,161.03,410.5,Single-ply,SBD,M,
Boys,67.13,8,Jalynn Robinson,Longview Pine Tree,64.05,131.54,102.06,172.37,405.97,Single-ply,SBD,M,
Boys,67.13,9,Jaxton Welch,Harleton,65.68,154.22,88.45,163.29,405.97,Single-ply,SBD,M,
Boys,67.13,10,Colby Plasterer,Ore City,65.32,142.88,92.99,158.76,394.63,Single-ply,SBD,M,
Boys,67.13,11,Hunter Harkins,Henderson,67.13,147.42,83.91,158.76,390.09,Single-ply,SBD,M,
Boys,67.13,12,Joseph Cordova,Longview Pine Tree,60.24,156.49,70.31,154.22,381.02,Single-ply,SBD,M,
Boys,67.13,13,Ty Gala,Hallsville,64.86,136.08,88.45,151.95,376.48,Single-ply,SBD,M,
Boys,67.13,14,Luke Irwin,Brownsboro,59.96,133.81,81.65,145.15,360.61,Single-ply,SBD,M,
Boys,67.13,15,Madox Adams,Forney,63.5,117.93,74.84,151.95,344.73,Single-ply,SBD,M,
Boys,67.13,16,Camden Jones,Ore City,60.24,113.4,79.38,149.69,342.46,Single-ply,SBD,M,
Boys,67.13,DQ,Kevin Ramirez #7,Tatum,67.13,102.06,,,,Single-ply,SBD,M,
Boys,67.13,DQ,Nick Collins #5,Tyler,66.13,,,,,Single-ply,SBD,M,
Boys,74.84,1,Eric Allen,Center,72.57,199.58,120.2,217.72,537.51,Single-ply,SBD,M,
Boys,74.84,2,Garrison Conner,Diana New Diana,74.21,183.7,117.93,215.46,517.1,Single-ply,SBD,M,
Boys,74.84,3,Toney Alexander,Tyler,74.66,181.44,124.74,183.7,489.88,Single-ply,SBD,M,
Boys,74.84,4,Brealon Fagan,Hallsville,69.4,174.63,92.99,204.12,471.74,Single-ply,SBD,M,
Boys,74.84,5,Greyson Adams,Brownsboro,68.67,179.17,124.74,165.56,469.47,Single-ply,SBD,M,
Boys,74.84,6,Zane Stroman,Harleton,71.3,170.1,102.06,174.63,446.79,Single-ply,SBD,M,
Boys,74.84,7,Malachi Gray,Longview Pine Tree,74.3,176.9,88.45,181.44,446.79,Single-ply,SBD,M,
Boys,74.84,8,Jacori Turner,Mount Pleasant,74.66,158.76,108.86,151.95,419.57,Single-ply,SBD,M,
Boys,74.84,9,Aiden Cooper,Hallsville,70.49,147.42,90.72,170.1,408.23,Single-ply,SBD,M,
Boys,74.84,10,Davy Mapps,Diana New Diana,71.49,138.35,79.38,174.63,392.36,Single-ply,SBD,M,
Boys,74.84,11,Cameron Weigman,Brownsboro,70.94,142.88,79.38,156.49,378.75,Single-ply,SBD,M,
Boys,74.84,12,James Murray,Hawkins,73.3,129.27,83.91,151.95,365.14,Single-ply,SBD,M,
Boys,74.84,DQ,Cason Hughes,Ore City,74.84,,,,,Single-ply,SBD,M,
Boys,74.84,DQ,Raul Tellez,Center,74.84,174.63,,,,Single-ply,SBD,M,
Boys,74.84,DQ,Jaxon Barwick,Forney,72.57,170.1,97.52,,,Single-ply,SBD,M,
Boys,74.84,DQ,Cole Seider,Henderson,73.39,,,,,Single-ply,SBD,M,
Boys,74.84,DQ,Zandler Stroman,Harleton,73.57,176.9,58.97,,,Single-ply,SBD,M,
Boys,82.1,1,Elias Elizando,Mount Pleasant,80.83,201.85,111.13,235.87,548.85,Single-ply,SBD,M,
Boys,82.1,2,Kaleb Tate,Henderson,80.29,206.38,136.08,192.78,535.24,Single-ply,SBD,M,
Boys,82.1,3,Cameron Johnson,Harleton,78.74,195.04,117.93,195.04,508.02,Single-ply,SBD,M,
Boys,82.1,4,Stephen Thrasher,Forney,80.74,183.7,129.27,192.78,505.76,Single-ply,SBD,M,
Boys,82.1,5,Kaden King,Brownsboro,79.02,181.44,115.67,199.58,496.68,Single-ply,SBD,M,
Boys,82.1,6,Josh Mata,Henderson,76.29,181.44,120.2,183.7,485.34,Single-ply,SBD,M,
Boys,82.1,7,Nick Calhoun,Tatum,78.93,181.44,108.86,183.7,474,Single-ply,SBD,M,
Boys,82.1,8,Hunter Shirts,Harleton,81.19,181.44,104.33,179.17,464.93,Single-ply,SBD,M,
Boys,82.1,9,Dominick Alvarez,Henderson,75.93,170.1,102.06,181.44,453.59,Single-ply,SBD,M,
Boys,82.1,10,Jackson Richardson,Tatum,79.11,165.56,74.84,206.38,446.79,Single-ply,SBD,M,
Boys,82.1,11,Esteban Trejo,Mount Pleasant,79.29,172.37,97.52,172.37,442.25,Single-ply,SBD,M,
Boys,82.1,12,Omari Jones,Diana New Diana,76.75,154.22,97.52,181.44,433.18,Single-ply,SBD,M,
Boys,82.1,13,Xavier Moore,Tatum,80.92,156.49,79.38,170.1,405.97,Single-ply,SBD,M,
Boys,82.1,14,Garrett Haught,Hallsville,81.19,154.22,92.99,136.08,383.29,Single-ply,SBD,M,
Boys,82.1,15,Tyler Spears,Ore City,78.83,127.01,70.31,181.44,378.75,Single-ply,SBD,M,
Boys,82.1,16,Oscar Otero,Mount Pleasant,75.48,106.59,92.99,167.83,367.41,Single-ply,SBD,M,
Boys,82.1,17,Rowdy Searer,Hawkins,77.93,79.38,83.91,158.76,322.05,Single-ply,SBD,M,
Boys,82.1,DQ,Ya'Corus Porter,Henderson,82.1,,,,,Single-ply,SBD,M,
Boys,82.1,DQ,Jacob Johnston,Diana New Diana,82.1,115.67,,,,Single-ply,SBD,M,
Boys,82.1,DQ,Dakota Carrol,Center,82.1,124.74,,,,Single-ply,SBD,M,
Boys,82.1,DQ,Clint Jones,Tatum,78.47,154.22,88.45,,,Single-ply,SBD,M,
Boys,82.1,DQ,Isaias Sellers,Tyler,81.65,,,,,Single-ply,SBD,M,
Boys,89.81,1,Rylan Freeman,Tatum,82.46,231.33,122.47,197.31,551.11,Single-ply,SBD,M,
Boys,89.81,2,Kelton Pickrom,Longview Pine Tree,89.09,183.7,154.22,199.58,537.51,Single-ply,SBD,M,
Boys,89.81,3,Tanner Howland,Forney,87.63,197.31,127.01,204.12,528.44,Single-ply,SBD,M,
Boys,89.81,4,Daniel Garcia #12,Mount Pleasant,84.64,210.92,113.4,201.85,526.17,Single-ply,SBD,M,
Boys,89.81,5,Cameron Williams #1,Hallsville,87.36,197.31,108.86,192.78,498.95,Single-ply,SBD,M,
Boys,89.81,6,Isaiah McDonald,Hallsville,86.82,176.9,115.67,185.97,478.54,Single-ply,SBD,M,
Boys,89.81,7,Dane Brown,Hallsville,83.1,170.1,111.13,192.78,474,Single-ply,SBD,M,
Boys,89.81,8,Samuel Lee,Brownsboro,86,174.63,142.88,154.22,471.74,Single-ply,SBD,M,
Boys,89.81,9,Ryder Marshall,Mount Pleasant,85.82,172.37,106.59,183.7,462.66,Single-ply,SBD,M,
Boys,89.81,10,Brady Hudler,Brownsboro,88.45,167.83,108.86,172.37,449.06,Single-ply,SBD,M,
Boys,89.81,11,Joe Herrera,Henderson,88.45,165.56,111.13,158.76,435.45,Single-ply,SBD,M,
Boys,89.81,12,Ron Davis,Center,85.46,158.76,88.45,165.56,412.77,Single-ply,SBD,M,
Boys,89.81,13,Braylon Franklin,Diana New Diana,84.73,117.93,88.45,195.04,401.43,Single-ply,SBD,M,
Boys,89.81,14,Abram Gonzalez,Forney,83.37,92.99,83.91,154.22,331.12,Single-ply,SBD,M,
Boys,89.81,DQ,Logan Shiflet,Diana New Diana,89.81,156.49,,,,Single-ply,SBD,M,
Boys,89.81,DQ,Zachary Fuller,Forney,86.45,210.92,106.59,,,Single-ply,SBD,M,
Boys,89.81,DQ,Daniel Wenner,Forney,82.46,,,,,Single-ply,SBD,M,
Boys,89.81,DQ,DeJay Huggins,Hallsville,89.09,,,,,Single-ply,SBD,M,
Boys,89.81,DQ,Carter Bibb,Harleton,89.18,,,,,Single-ply,SBD,M,
Boys,89.81,DQ,Dunarieon Cantley,Tyler,88.99,,,,,Single-ply,SBD,M,
Boys,89.81,DQ,Ivan Morales,Tyler,87,,,,,Single-ply,SBD,M,
Boys,99.79,1,Hayden Branson,Hallsville,90.99,260.82,183.7,260.82,705.34,Single-ply,SBD,M,
Boys,99.79,2,Taber Childs,Harleton,93.26,235.87,131.54,231.33,598.74,Single-ply,SBD,M,
Boys,99.79,3,Waihett Emerson,Center,93.89,235.87,131.54,226.8,594.21,Single-ply,SBD,M,
Boys,99.79,4,Hurcules Tarver,Longview Pine Tree,94.8,226.8,131.54,217.72,576.06,Single-ply,SBD,M,
Boys,99.79,5,Caron Whitworth,Diana New Diana,96.98,231.33,124.74,219.99,576.06,Single-ply,SBD,M,
Boys,99.79,6,Coleman Tapia,Hawkins,98.61,201.85,154.22,190.51,546.58,Single-ply,SBD,M,
Boys,99.79,7,Remington Talasek,Hallsville,92.17,190.51,117.93,217.72,526.17,Single-ply,SBD,M,
Boys,99.79,8,Jose Gonzalez #24,Mount Pleasant,91.63,201.85,83.91,183.7,469.47,Single-ply,SBD,M,
Boys,99.79,9,Josh Davidson,Hallsville,99.43,170.1,108.86,190.51,469.47,Single-ply,SBD,M,
Boys,99.79,10,Kevin Dao,Hallsville,96.34,172.37,88.45,172.37,433.18,Single-ply,SBD,M,
Boys,99.79,11,Coen Ellis,Hallsville,93.8,145.15,104.33,156.49,405.97,Single-ply,SBD,M,
Boys,99.79,12,Taylor Rutherford,Tatum,90.54,151.95,83.91,156.49,392.36,Single-ply,SBD,M,
Boys,99.79,13,Brycen Hill,Hawkins,93.17,142.88,90.72,147.42,381.02,Single-ply,SBD,M,
Boys,99.79,14,Francisco Ceferino,Center,97.89,129.27,83.91,158.76,371.95,Single-ply,SBD,M,
Boys,99.79,15,Evan Mewborn,Hallsville,98.97,124.74,74.84,124.74,324.32,Single-ply,SBD,M,
Boys,99.79,16,Cason Weatherton,Henderson,92.99,40.82,102.06,86.18,229.06,Single-ply,SBD,M,
Boys,99.79,DQ,Byrce Lockhart,Harleton,90.17,,,,,Single-ply,SBD,M,
Boys,99.79,DQ,Tj Davis,Center,93.8,,,,,Single-ply,SBD,M,
Boys,109.77,1,Astin Ledbetter,Mount Pleasant,102.6,192.78,149.69,231.33,573.79,Single-ply,SBD,M,
Boys,109.77,2,Clayton Miller,Mount Pleasant,108.95,213.19,156.49,199.58,569.26,Single-ply,SBD,M,
Boys,109.77,3,Dillon Moralez,Hallsville,104.96,219.99,133.81,213.19,566.99,Single-ply,SBD,M,
Boys,109.77,4,Felipe Juarez,Hallsville,101.15,192.78,136.08,210.92,539.77,Single-ply,SBD,M,
Boys,109.77,5,Emmanuel Carranza,Longview Pine Tree,105.05,197.31,120.2,190.51,508.02,Single-ply,SBD,M,
Boys,109.77,6,John Taylor #11,Tyler,105.6,185.97,131.54,185.97,503.49,Single-ply,SBD,M,
Boys,109.77,7,Tristen McClellan,Center,104.78,174.63,120.2,183.7,478.54,Single-ply,SBD,M,
Boys,109.77,8,Cameron Johnson,Hawkins,105.69,174.63,117.93,149.69,442.25,Single-ply,SBD,M,
Boys,109.77,9,Dravyn Mathis,Hallsville,108.05,165.56,108.86,163.29,437.72,Single-ply,SBD,M,
Boys,109.77,10,Robert Aguilar,Diana New Diana,103.33,151.95,95.25,174.63,421.84,Single-ply,SBD,M,
Boys,109.77,DQ,Tayton Auldridge,Forney,101.33,226.8,,,,Single-ply,SBD,M,
Boys,109.77,DQ,Tanner Harris,Hallsville,108.5,,,,,Single-ply,SBD,M,
Boys,109.77,DQ,Hayden Huffman,Forney,105.78,219.99,108.86,,,Single-ply,SBD,M,
Boys,109.77,DQ,VerKerious Smith,Tyler,101.33,,,,,Single-ply,SBD,M,
Boys,109.77,DQ,Ameer Johnson,Tyler,106.87,,,,,Single-ply,SBD,M,
Boys,124.74,1,Eujayvion McAlister,Henderson,112.22,317.51,192.78,272.16,782.45,Single-ply,SBD,M,
Boys,124.74,2,Micah Shepherd,Mount Pleasant,111.13,272.16,163.29,238.14,673.58,Single-ply,SBD,M,
Boys,124.74,3,Eric Lopez,Center,116.03,272.16,172.37,188.24,632.76,Single-ply,SBD,M,
Boys,124.74,4,Jake Seal,Hallsville,123.38,238.14,149.69,197.31,585.13,Single-ply,SBD,M,
Boys,124.74,5,Lane Woods,Harleton,113.13,222.26,127.01,199.58,548.85,Single-ply,SBD,M,
Boys,124.74,6,Christian Thomas,Forney,122.74,190.51,145.15,213.19,548.85,Single-ply,SBD,M,
Boys,124.74,7,Peyton Murray,Harleton,114.4,199.58,111.13,190.51,501.22,Single-ply,SBD,M,
Boys,124.74,8,Javian Harper,Tyler,121.93,142.88,122.47,183.7,449.06,Single-ply,SBD,M,
Boys,124.74,9,Marfe Cornelio,Tyler,113.94,161.03,111.13,163.29,435.45,Single-ply,SBD,M,
Boys,124.74,10,Garrett Christie,Diana New Diana,110.68,136.08,83.91,174.63,394.63,Single-ply,SBD,M,
Boys,124.74,DQ,Race Rountree,Diana New Diana,124.74,151.95,,,,Single-ply,SBD,M,
Boys,124.74,DQ,Luke Rodriguez,Forney,118.84,272.16,,,,Single-ply,SBD,M,
Boys,139.71,1,Devin Fields,Henderson,128.28,290.3,204.12,285.76,780.18,Single-ply,SBD,M,
Boys,139.71,2,Reese Mercer,Forney,131.36,276.69,147.42,226.8,650.91,Single-ply,SBD,M,
Boys,139.71,3,Brock Johnson,Henderson,127.55,238.14,151.95,249.48,639.57,Single-ply,SBD,M,
Boys,139.71,4,Osvaldo Diaz,Center,131.9,215.46,108.86,204.12,528.44,Single-ply,SBD,M,
Boys,139.71,5,David Seagroves,Brownsboro,125.37,195.04,136.08,188.24,519.36,Single-ply,SBD,M,
Boys,139.71,6,Kadarius Roberson,Hawkins,130.18,204.12,124.74,183.7,512.56,Single-ply,SBD,M,
Boys,139.71,7,Graham Black,Hallsville,134.9,145.15,106.59,163.29,415.04,Single-ply,SBD,M,
Boys,139.71,DQ,Riley Maxwell,Diana New Diana,139.71,181.44,,,,Single-ply,SBD,M,
Boys,139.71,DQ,John Hester,Hawkins,127.46,,,,,Single-ply,SBD,M,
Boys,139.71+,1,Kameron Henry,Center,187.7,217.72,163.29,201.85,582.87,Single-ply,SBD,M,
Boys,139.71+,2,John Bateman,Henderson,168.01,208.65,124.74,226.8,560.19,Single-ply,SBD,M,
Boys,139.71+,3,Branson Rhone,Brownsboro,140.52,192.78,124.74,210.92,528.44,Single-ply,SBD,M,
Boys,139.71+,4,Payton Campbell,Tyler,140.8,149.69,72.57,170.1,392.36,Single-ply,SBD,M,
Boys,139.71+,DQ,Jon Tatum,Ore City,140.61,,,,,Single-ply,SBD,M,
Boys,139.71+,DQ,Jacob Seaton,Tyler,148.32,,,,,Single-ply,SBD,M,
Boys,,NS,Jayseph Cropton,Tyler,,79.38,72.57,,,Single-ply,SBD,M,
